Capitulo 2 Avance 2 - Analisis Exploratorio | Bookdown - Grupo B
…
## The following objects are masked from 'package:base':
## 
##     as.Date, as.Date.numeric

## Successfully loaded changepoint package version 2.2.4
##  See NEWS for details of changes.

library(readxl)

datos <- read_excel("./fuente/BASE_Clientes.xlsx")
datos

## # A tibble: 643,570 × 8
##    Periodo Sub_Tipo N_Clientes DIAS_DE_MORA     Saldo Genero grupo_actividad_eco
##    <chr>   <chr>         <dbl>        <dbl>     <dbl> <chr>  <chr>              
##  1 2018-01 CDC               4            0 15824105. Femen… Dependiente privado
##  2 2018-01 CDC               1            0  6810373. Femen… Dependiente privado
##  3 2018-01 CDC               6            6 28819502. Femen… Dependiente privado
##  4 2018-01 CDC              12           63 81343674. Femen… Dependiente privado
##  5 2018-01 CDC               1           21  7524344. Femen… Dependiente privado
##  6 2018-01 CDC               4            0 12974213. Femen… Dependiente privado
##  7 2018-01 CDC               3            1 21348609. Femen… Dependiente privado
##  8 2018-01 CDC               2            0 11475858. Femen… Dependiente privado
##  9 2018-01 CDC              10           38 60012355. Femen… Dependiente privado
## 10 2018-01 CDC               1            0  9034715. Femen… Dependiente privado
## # ℹ 643,560 more rows
## # ℹ 1 more variable: Cuidad_res <chr>
…
